{
    "name": "默认主题",
    "slug": "default",
    "desc": "这是站点内的一个默认主题。",
    "pages": [
        {
            "name": "首页",
            "slug": "index"
        },
        {
            "name": "文章列表",
            "slug": "posts"
        },
        {
            "name": "文章详情",
            "slug": "posts_detail"
        }
    ],
    "widgets": [
        {
            "name": "客服信息",
            "slug": "kefu",
            "type": "single",
            "config": [
                {
                    "column": "hotline",
                    "label": "热线电话",
                    "type": "mobile"
                },
                {
                    "column": "weibo",
                    "label": "微博",
                    "type": "url"
                },
                {
                    "column": "wechat",
                    "label": "微信二维码",
                    "type": "media"
                }
            ]
        }
    ]
}
